<svg width="35" height="21" viewBox="0 0 35 21" fill="none" xmlns="http://www.w3.org/2000/svg">
<path d="M34.0341 4.87828L18.7795 0.191544C17.9482 -0.0638479 17.0514 -0.0638479 16.2206 0.191544L0.965512 4.87828C-0.321837 5.27367 -0.321837 6.9761 0.965512 7.37149L3.62498 8.18853C3.04146 8.90986 2.68271 9.78978 2.64716 10.7534C2.12052 11.0553 1.74973 11.5999 1.74973 12.2502C1.74973 12.8397 2.06036 13.3357 2.50771 13.6529L1.11153 19.9354C0.990121 20.4818 1.40575 21.0002 1.9652 21.0002H5.03373C5.59373 21.0002 6.00936 20.4818 5.88795 19.9354L4.49178 13.6529C4.93912 13.3357 5.24975 12.8397 5.24975 12.2502C5.24975 11.6174 4.89592 11.0881 4.39334 10.7807C4.4349 9.95932 4.8549 9.23306 5.52483 8.77259L16.2201 12.0588C16.7156 12.2108 17.666 12.4006 18.7789 12.0588L34.0341 7.37204C35.322 6.9761 35.322 5.27422 34.0341 4.87828ZM19.293 13.7317C17.7328 14.2107 16.4033 13.946 15.706 13.7317L7.77522 11.2953L6.99975 17.5002C6.99975 19.4334 11.7007 21.0002 17.4998 21.0002C23.2989 21.0002 27.9998 19.4334 27.9998 17.5002L27.2244 11.2948L19.293 13.7317Z" fill="#4A8DB7"/>
</svg>
