<svg width="20" height="20" viewBox="0 0 20 20" fill="none" xmlns="http://www.w3.org/2000/svg">
<path d="M12.9609 8.57893C14.066 8.57893 15.1047 8.99716 15.8852 9.75749L16.6504 10.503C18.2133 9.82789 19.4336 8.47466 19.8387 6.82498C20.0623 5.91471 20.0473 5.03336 19.8471 4.22203C19.745 3.808 19.2053 3.66986 18.8963 3.97072L16.2049 6.5927H13.2518V3.74977L15.9432 1.12779C16.2522 0.826702 16.1101 0.30086 15.6852 0.201537C14.8524 0.0065054 13.9477 -0.00814573 13.0133 0.209711C10.8532 0.713176 9.16995 2.50137 8.82581 4.6393C8.76953 4.95611 8.75781 5.26435 8.76172 5.56879L11.9953 8.72202C12.3125 8.61699 12.6367 8.57893 12.9609 8.57893ZM15 10.6529C14.0953 9.77157 12.7512 9.60375 11.6645 10.124L7.46484 6.06351V3.70372L2.5 0.0508393L0 2.4521L3.75 7.28887L6.17344 7.28917L10.3414 11.3458C9.80742 12.4045 9.98004 13.714 10.8848 14.5953L15.4551 19.0515C16.0262 19.6033 16.9477 19.6033 17.5141 19.0515L19.5746 17.0441C20.141 16.4923 20.141 15.595 19.5745 15.0382L15 10.6529ZM8.90234 11.7337L6.58984 9.48464L0.773438 15.151C-0.256641 16.1545 -0.256641 17.7798 0.773438 18.7833C1.2875 19.2838 1.96133 19.5349 2.63672 19.5349C3.31211 19.5349 3.98594 19.2841 4.50078 18.7822L9.15313 14.2499C8.80859 13.4576 8.69531 12.5861 8.90234 11.7337ZM2.5 18.0127C1.98242 18.0127 1.5625 17.6036 1.5625 17.0994C1.5625 16.5948 1.98242 16.1861 2.5 16.1861C3.01758 16.1861 3.4375 16.5933 3.4375 17.0994C3.4375 17.6055 3.01758 18.0127 2.5 18.0127Z" fill="white"/>
</svg>
