<svg width="19" height="20" viewBox="0 0 19 20" fill="none" xmlns="http://www.w3.org/2000/svg">
<path d="M9.375 0.625C7.5208 0.625 5.70824 1.17483 4.16653 2.20497C2.62482 3.23511 1.42321 4.69929 0.713634 6.41234C0.00406213 8.1254 -0.181594 10.0104 0.180142 11.829C0.541879 13.6475 1.43476 15.318 2.74588 16.6291C4.05699 17.9402 5.72746 18.8331 7.54603 19.1949C9.3646 19.5566 11.2496 19.3709 12.9627 18.6614C14.6757 17.9518 16.1399 16.7502 17.17 15.2085C18.2002 13.6668 18.75 11.8542 18.75 10C18.75 7.5136 17.7623 5.12903 16.0041 3.37087C14.246 1.61272 11.8614 0.625 9.375 0.625ZM10 13.6V14.3062C10 14.472 9.93416 14.631 9.81695 14.7482C9.69974 14.8654 9.54076 14.9312 9.375 14.9312C9.20924 14.9312 9.05027 14.8654 8.93306 14.7482C8.81585 14.631 8.75 14.472 8.75 14.3062V13.6063C8.43966 13.514 8.15367 13.3541 7.91265 13.1379C7.67162 12.9217 7.48159 12.6548 7.35625 12.3563C7.32231 12.2624 7.31134 12.1618 7.32427 12.0628C7.3372 11.9638 7.37364 11.8694 7.43055 11.7874C7.48746 11.7054 7.56319 11.6382 7.65138 11.5914C7.73958 11.5447 7.83769 11.5198 7.9375 11.5188C8.0609 11.5153 8.18255 11.5485 8.2871 11.6141C8.39166 11.6798 8.47444 11.7749 8.525 11.8875C8.59196 12.058 8.70903 12.2043 8.86077 12.3069C9.01252 12.4096 9.19181 12.4638 9.375 12.4625C9.49618 12.4633 9.61632 12.4402 9.72851 12.3944C9.8407 12.3486 9.94273 12.281 10.0287 12.1956C10.1147 12.1102 10.1829 12.0087 10.2295 11.8968C10.276 11.7849 10.3 11.6649 10.3 11.5437C10.3033 11.4196 10.2819 11.296 10.2371 11.1802C10.1923 11.0644 10.1249 10.9586 10.0388 10.8691C9.95273 10.7795 9.84973 10.7079 9.73578 10.6585C9.62183 10.6091 9.49919 10.5829 9.375 10.5813C9.00408 10.5763 8.64035 10.4782 8.31726 10.296C7.99417 10.1137 7.72209 9.85315 7.52605 9.53823C7.33 9.22331 7.21628 8.86416 7.19535 8.49379C7.17442 8.12343 7.24694 7.75375 7.40625 7.41875C7.53279 7.14332 7.71901 6.89949 7.95142 6.70491C8.18384 6.51033 8.45661 6.36989 8.75 6.29375V5.575C8.75 5.40924 8.81585 5.25027 8.93306 5.13306C9.05027 5.01585 9.20924 4.95 9.375 4.95C9.54076 4.95 9.69974 5.01585 9.81695 5.13306C9.93416 5.25027 10 5.40924 10 5.575V6.3125C10.3403 6.41107 10.6514 6.59129 10.9063 6.8375C11.119 7.04984 11.2869 7.30276 11.4 7.58125C11.4267 7.6724 11.4322 7.76843 11.4162 7.86205C11.4002 7.95566 11.3631 8.0444 11.3077 8.12152C11.2522 8.19864 11.18 8.26211 11.0963 8.30711C11.0127 8.35212 10.9199 8.37747 10.825 8.38125C10.7019 8.387 10.5799 8.35625 10.4743 8.29286C10.3686 8.22948 10.2841 8.13629 10.2313 8.025C10.1802 7.91394 10.1104 7.81247 10.025 7.725C9.85767 7.56032 9.63464 7.46441 9.4 7.45625C9.15627 7.45952 8.92354 7.55822 8.75176 7.73116C8.57999 7.9041 8.48287 8.1375 8.48125 8.38125C8.48221 8.62231 8.57417 8.85412 8.73873 9.03027C8.90329 9.20642 9.12831 9.31392 9.36875 9.33125C9.8945 9.34304 10.4 9.53611 10.7998 9.87778C11.1995 10.2195 11.469 10.6888 11.5625 11.2063C11.6325 11.7263 11.5132 12.2542 11.2263 12.6937C10.9395 13.1331 10.5043 13.4548 10 13.6Z" fill="#4A8DB7"/>
</svg>
