<svg width="18" height="14" viewBox="0 0 18 14" fill="none" xmlns="http://www.w3.org/2000/svg">
<path d="M9.95817 4.89573C9.95817 4.41943 9.52654 4.36134 9.1194 4.36134L7.92246 4.35263V6.36532H8.4245V5.63634H8.97552C9.53878 5.63634 9.4194 5.93548 9.42858 6.36532H9.93674V5.97324C9.93674 5.70604 9.89083 5.53469 9.60001 5.43884C9.82654 5.35171 9.96123 5.12808 9.95817 4.89573ZM9.05817 5.22392H8.4245V4.77956H9.06736C9.22348 4.77956 9.39491 4.8086 9.39491 4.99448C9.39491 5.18617 9.23266 5.22392 9.05817 5.22392ZM8.54695 7.8233H6.93368L6.29082 8.48548L5.66327 7.8233H3.62755L3.62449 9.83599H5.62654L6.27858 9.168L6.90307 9.83599H7.88878L7.89184 9.15929C8.47042 9.15929 9.40103 9.29288 9.40103 8.48258C9.40103 7.98013 9.0245 7.8233 8.54695 7.8233ZM5.36939 9.41196H4.12653V9.01116H5.23776V8.60165H4.12653V8.23861H5.40307L5.95103 8.82529L5.36939 9.41196ZM7.38368 9.65012L6.60919 8.834L7.38368 8.03822V9.65012ZM8.54082 8.74978H7.89184V8.23861H8.55001C8.72144 8.23861 8.86225 8.30541 8.86225 8.48258C8.86225 8.66845 8.72144 8.74978 8.54082 8.74978ZM7.57348 4.77956V4.35553H5.87449V6.36823H7.57348V5.95291H6.38266V5.55211H7.5398V5.1426H6.38266V4.77956H7.57348ZM17.6388 7.43992H17.6327H17.6388ZM11.6816 8.3664C11.6816 7.89009 11.25 7.8233 10.852 7.8233H9.64593L9.64287 9.83599H10.151L10.1541 9.1012H10.6929C11.0296 9.1012 11.1459 9.15928 11.1459 9.502L11.1429 9.83599H11.651L11.6541 9.4352C11.6541 9.17671 11.599 8.99664 11.3174 8.9008C11.5531 8.81077 11.6786 8.58713 11.6816 8.3664ZM10.7878 8.69169H10.1541V8.23861H10.7969C10.9531 8.23861 11.1245 8.26766 11.1245 8.45353C11.1245 8.65393 10.9592 8.69169 10.7878 8.69169ZM5.49796 6.36823V4.35553H4.65307L4.05 5.72056L3.38572 4.35553H2.55612V6.26367L1.69592 4.35553H0.945919L0.0367347 6.36823H0.584694L0.780613 5.92387H1.83674L2.03265 6.36823H3.06735V4.79408L3.80204 6.36823H4.24898L4.98368 4.79408V6.36823H5.49796ZM0.961225 5.50564L1.30408 4.70405L1.65612 5.50564H0.961225ZM15.5755 10.1206V9.98992C15.2449 10.1526 15.4561 10.1206 10.7786 10.1206C10.7786 9.38873 10.7816 9.42648 10.7786 9.38873C10.7265 9.38582 10.6806 9.38582 10.4908 9.38582C10.4908 9.9057 10.4878 9.58332 10.4878 10.1206H9.27552C9.27552 9.76919 9.27858 9.67626 9.27858 9.27255C8.97246 9.44681 8.58062 9.45843 8.22858 9.45262C8.22858 9.87956 8.22552 9.69368 8.22552 10.1206H6.72858C6.57245 9.95507 6.64592 10.0306 6.25715 9.61526C6.15919 9.71692 5.86531 10.019 5.76429 10.1206H3.25408V7.43992H5.79796C5.95103 7.60257 5.88368 7.52996 6.27245 7.93947C6.37041 7.83782 6.64592 7.55029 6.75307 7.43992H8.52858C8.82858 7.43992 9.0796 7.49511 9.27246 7.60257V7.43992C10.9347 7.43992 11.2408 7.39926 11.5898 7.58804V7.43992H13.9837V7.59095C14.3327 7.39055 14.5837 7.43992 15.9704 7.43992V7.58514C16.2857 7.41378 16.4786 7.43412 17.6327 7.43992V2.34574C17.6327 1.57609 16.9745 0.95166 16.1633 0.95166H1.46939C0.658164 0.95166 0 1.57609 0 2.34574V5.53469C0.287755 4.89864 0.603062 4.1987 0.707143 3.96925H1.92245C2.05408 4.26259 1.97143 4.07671 2.19796 4.58207V3.96925H3.60613C3.6949 4.14932 3.94592 4.66629 4.03164 4.84055C4.20919 4.44556 4.34082 4.14642 4.41735 3.96925H7.57041C7.57041 3.96635 7.92246 3.96925 7.92552 3.96925C9.26327 3.97506 9.56634 3.94602 9.89695 4.12318V3.96925H11.1184V4.23936C11.351 4.06219 11.6663 3.96925 12.0582 3.96925H12.9031C12.9031 3.98378 12.9612 3.97797 12.9735 3.97797H13.9653C14.0939 4.26259 14.0449 4.15223 14.2347 4.57626V3.97797H15.5602C15.7102 4.21031 15.5296 3.92569 15.9031 4.51236V3.97797H17.1245V6.64995H15.851C15.6857 6.38856 15.8082 6.58605 15.447 6.0139V6.64995H13.8306C13.6347 6.22011 13.8276 6.64123 13.6286 6.20559H13.047C12.9184 6.49602 12.9796 6.35661 12.851 6.64995H12.0306C11.6541 6.64995 11.348 6.56282 11.1214 6.39146V6.64995H9.08572C9.07654 6.24625 9.08266 5.92967 9.08266 5.92967C9.02756 5.92096 8.97858 5.92387 8.78266 5.92387V6.65285H4.6347V6.32176C4.55817 6.4844 4.55204 6.49311 4.47858 6.65285H3.57551C3.45306 6.39437 3.48674 6.46697 3.41939 6.32176V6.65285H1.8C1.67143 6.35952 1.73265 6.49892 1.60408 6.20849H1.01633C0.887756 6.49892 0.94898 6.35952 0.820409 6.65285H0.00612245V12.569C0.00612245 13.3386 0.664286 13.963 1.47551 13.963H16.1725C16.9837 13.963 17.6419 13.3386 17.6419 12.569V9.94345C17.2531 10.1845 16.6408 10.1206 15.5755 10.1206ZM16.6868 8.24733H17.6082V7.8233H16.601C16.2092 7.8233 15.8725 8.01498 15.8725 8.42449C15.8725 9.38292 17.1796 8.79624 17.1796 9.22028C17.1796 9.3684 17.048 9.40615 16.9225 9.40615H15.9429L15.9398 9.83599H16.9194C17.1765 9.83599 17.4582 9.78372 17.6082 9.57751V8.82819C17.2868 8.4274 16.4051 8.79044 16.4051 8.43611C16.4051 8.26766 16.5459 8.24733 16.6868 8.24733ZM14.9418 9.40325H13.9561L13.9531 9.83309H14.9388C15.3919 9.83309 15.7408 9.67045 15.7408 9.19414C15.7408 8.2299 14.4276 8.86885 14.4276 8.4303C14.4276 8.26766 14.5776 8.24442 14.7092 8.24442H15.6398V7.82039H14.6235C14.2316 7.82039 13.9041 8.01208 13.9041 8.42159C13.9041 9.38001 15.2112 8.78463 15.2112 9.21737C15.2082 9.37421 15.0674 9.40325 14.9418 9.40325ZM13.65 8.23861V7.8233H11.9602L11.9572 9.83599H13.647L13.65 9.42067L12.4684 9.41196V9.01116H13.6286V8.60165H12.4714V8.23861H13.65ZM11.9265 5.09904C11.9174 5.10485 11.8837 5.16293 11.8837 5.31977C11.8837 5.49403 11.9112 5.5434 11.9174 5.54921C11.9235 5.55211 11.951 5.56373 12.0214 5.56373L12.2449 5.0729C12.2112 5.0729 12.1806 5.06999 12.15 5.06999C11.9786 5.06999 11.9357 5.09032 11.9265 5.09904ZM12.551 4.79408H12.548H12.551ZM12.0551 4.35263C11.3357 4.35263 11.0143 4.70114 11.0143 5.37785C11.0143 6.02261 11.3265 6.36532 12.0245 6.36532H12.6123L12.8082 5.92096H13.8582L14.0602 6.36532H15.0918V4.85798L16.047 6.36532H16.7694V4.36134H16.2521V5.75832L15.3612 4.36134H14.5867V6.26077L13.7327 4.36134H12.9735L12.2541 5.9442H12.0276C11.6204 5.9442 11.5347 5.70895 11.5347 5.36624C11.5347 4.67501 12.0153 4.78537 12.548 4.79408V4.35263H12.0551ZM13.3439 4.70405L13.6867 5.50564H12.9888L13.3439 4.70405ZM10.249 4.35553V6.36823H10.7663V4.35553H10.249Z" fill="#FDF8F8"/>
</svg>
