<svg width="21" height="24" viewBox="0 0 21 24" fill="none" xmlns="http://www.w3.org/2000/svg">
<path d="M18.75 9.4247H17.25V7.30885C17.25 3.69466 14.25 0.716133 10.5188 0.707052C6.7875 0.697971 3.75 3.63564 3.75 7.24528V9.4247H2.25C1.00781 9.4247 0 10.4009 0 11.6041V21.7747C0 22.9779 1.00781 23.9541 2.25 23.9541H18.75C19.9922 23.9541 21 22.9779 21 21.7747V11.6041C21 10.4009 19.9922 9.4247 18.75 9.4247ZM6 7.24528C6 4.84339 8.02031 2.88646 10.5 2.88646C12.9797 2.88646 15 4.84339 15 7.24528V9.4247H6V7.24528ZM18.75 21.7747H2.25V11.6041H18.75V21.7747Z" fill="#FBB007"/>
</svg>
