<svg width="13" height="20" viewBox="0 0 13 20" fill="none" xmlns="http://www.w3.org/2000/svg">
<path d="M10.4303 0.292969H1.84064C0.824454 0.292969 0 1.11742 0 2.13361V18.0858C0 19.102 0.824454 19.9265 1.84064 19.9265H10.4303C11.4465 19.9265 12.2709 19.102 12.2709 18.0858V2.13361C12.2709 1.11742 11.4465 0.292969 10.4303 0.292969ZM6.13547 18.6994C5.45674 18.6994 4.90838 18.151 4.90838 17.4723C4.90838 16.7936 5.45674 16.2452 6.13547 16.2452C6.81421 16.2452 7.36257 16.7936 7.36257 17.4723C7.36257 18.151 6.81421 18.6994 6.13547 18.6994ZM10.4303 14.5579C10.4303 14.811 10.2232 15.0181 9.97014 15.0181H2.3008C2.04771 15.0181 1.84064 14.811 1.84064 14.5579V2.59377C1.84064 2.34068 2.04771 2.13361 2.3008 2.13361H9.97014C10.2232 2.13361 10.4303 2.34068 10.4303 2.59377V14.5579Z" fill="#4A8DB7"/>
</svg>
