<svg xmlns="http://www.w3.org/2000/svg" width="27.951" height="25.5" viewBox="0 0 27.951 25.5">
  <g id="Get_Qoutes" data-name="Get Qoutes" transform="translate(-124.492 -113.229)">
    <g id="Group_3713" data-name="Group 3713">
      <path id="Path_1796" data-name="Path 1796" d="M149.993,115.979v8.3h-1.5v-8.3a1.25,1.25,0,0,0-1.25-1.25h-20a1.25,1.25,0,0,0-1.25,1.25v20a1.25,1.25,0,0,0,1.25,1.25h15.75l.83.75.84.75h-17.42a2.755,2.755,0,0,1-2.75-2.75v-20a2.761,2.761,0,0,1,2.75-2.75h20A2.755,2.755,0,0,1,149.993,115.979Z" fill="#fff"/>
    </g>
    <g id="Group_3714" data-name="Group 3714">
      <path id="Path_1797" data-name="Path 1797" d="M138.953,122.059a1.81,1.81,0,0,1-.633.65,2.2,2.2,0,0,1-.987.316v.711h-.571v-.711a2.334,2.334,0,0,1-1.335-.518,1.457,1.457,0,0,1-.509-1.159h1.071a.954.954,0,0,0,.22.566.89.89,0,0,0,.553.285v-1.931a6.983,6.983,0,0,1-.957-.3,1.52,1.52,0,0,1-.628-.487,1.451,1.451,0,0,1-.259-.913,1.585,1.585,0,0,1,.509-1.207,2.186,2.186,0,0,1,1.335-.558v-.711h.571v.711a2.1,2.1,0,0,1,1.242.487,1.652,1.652,0,0,1,.532,1.146h-1.072a.859.859,0,0,0-.211-.487.928.928,0,0,0-.491-.294v1.9a6.551,6.551,0,0,1,.957.294,1.518,1.518,0,0,1,.623.484,1.449,1.449,0,0,1,.255.909A1.674,1.674,0,0,1,138.953,122.059Zm-2.8-2.986a1.544,1.544,0,0,0,.61.325v-1.774a.966.966,0,0,0-.6.273.84.84,0,0,0-.224.614A.731.731,0,0,0,136.152,119.073Zm1.787,2.815a.882.882,0,0,0,.219-.6.707.707,0,0,0-.215-.549,1.609,1.609,0,0,0-.61-.32V122.2A.976.976,0,0,0,137.939,121.888Z" fill="#fff"/>
    </g>
    <g id="Group_3715" data-name="Group 3715">
      <path id="Path_1798" data-name="Path 1798" d="M142.168,126.075H131.3v-1.3H142.69Z" fill="#fff"/>
    </g>
    <g id="Group_3716" data-name="Group 3716">
      <path id="Path_1799" data-name="Path 1799" d="M140.309,129.012H131.3v-1.3h9.532Z" fill="#fff"/>
    </g>
    <g id="Group_3717" data-name="Group 3717">
      <path id="Path_1800" data-name="Path 1800" d="M138.809,131.948h-7.5v-1.3h8.016Z" fill="#fff"/>
    </g>
    <g id="Group_3718" data-name="Group 3718">
      <path id="Path_1801" data-name="Path 1801" d="M137.785,134.884H131.3v-1.3h7.009Z" fill="#fff"/>
    </g>
    <g id="Group_3719" data-name="Group 3719">
      <rect id="Rectangle_725" data-name="Rectangle 725" width="1.17" height="1.3" transform="translate(128.915 133.584)" fill="#fff"/>
    </g>
    <g id="Group_3720" data-name="Group 3720">
      <rect id="Rectangle_726" data-name="Rectangle 726" width="1.17" height="1.3" transform="translate(128.915 130.648)" fill="#fff"/>
    </g>
    <g id="Group_3721" data-name="Group 3721">
      <rect id="Rectangle_727" data-name="Rectangle 727" width="1.17" height="1.3" transform="translate(128.915 127.712)" fill="#fff"/>
    </g>
    <g id="Group_3722" data-name="Group 3722">
      <rect id="Rectangle_728" data-name="Rectangle 728" width="1.17" height="1.3" transform="translate(128.915 124.776)" fill="#fff"/>
    </g>
    <g id="Group_3723" data-name="Group 3723">
      <path id="Path_1802" data-name="Path 1802" d="M146.643,125.489a5.81,5.81,0,1,0,5.8,5.81A5.808,5.808,0,0,0,146.643,125.489Zm-.77,8.14-2.07-2.44.76-.65,1.37,1.62,2.81-2.81.71.71Z" fill="#fff"/>
    </g>
  </g>
</svg>
